{
  "filters": {
    "prices": [
      {"range": "price_lt", "name": "< 500", "price": 500},
      {"range": "price_gt", "name": "> 3000", "price": 3000}
    ],
    "categories": [
      {"uniq_name": "tools", "name": "Tool"},
      {"uniq_name": "brushes", "name": "Brush"}
    ]
  },
  "sort": [
    {"uniq_name": "-price", "name": "Hight to Low"},
    {"uniq_name": "price", "name": "Low to Hight"}
  ],
  "page": [25, 50, 100, 150, 200]
  
}